A quick introduction to the tidyverse (well, mainly dplyr)
…
#DATA %>% filter(year > 1977) %>% dim

Which will lead us into the concept of groups!

group_by

group_by is useful for partitioning things and applying functions to these various partitions.

For the last example, we applied a threshold to the median year of all records. What if we wanted to apply it differently to each order and apply a median threshold for each one?

ORD <- DATA %>% group_by(order)
ORD

## # A tibble: 44,767 x 16
## # Groups:   order [17]
##    decimalLongitude decimalLatitude species   issues  basisOfRecord  order
##               <dbl>           <dbl> <fct>     <fct>   <fct>          <fct>
##  1            -99.8            31.9 Lynx ruf ""      PRESERVED_SPE Carn
##  2            -97.8            32.2 Canis lu ""      PRESERVED_SPE Carn
##  3            -97.8            32.2 Canis lu ""      PRESERVED_SPE Carn
##  4            -97.5            26.5 Canis la ""      PRESERVED_SPE Carn
##  5            -96.2            30.9 Odocoile ""      PRESERVED_SPE Arti
##  6           -107.             31.9 Bassaris gass84 PRESERVED_SPE Carn
##  7            -96.3            30.6 Baiomys  ""      PRESERVED_SPE Rode
##  8            -97.6            33.4 Peromysc gass84  PRESERVED_SPE Rode
##  9            -97.6            33.4 Peromysc gass84  PRESERVED_SPE Rode
## 10            -97.6            33.4 Peromysc gass84  PRESERVED_SPE Rode
## # ... with 44,757 more rows, and 10 more variables: family <fct>,
## #   coordinateUncertaintyInMeters <dbl>, year <int>, datasetName <fct>,
## #   catalogNumber <fct>, institutionCode <fct>, county <fct>,
## #   preparations <fct>, locality <fct>, sex <fct>

The argument in the dplyr::group_by function represents what you want to group with. Each of the different levels in the specified column will be their own group. Check out levels(DATA$order) to see what groups there are.

What it results in is a tibble which is the preferred object class for the tidyverse (as part of the tibble package) and somehow not a Gremlins or Furby knockoff. A tibble holds data in a similar way but presents it differently by showing dimensions, a few columns, the classes in the tibble, and groups if they exist.

Often when working with larger data.frames (say in the 100,000 or 1,000,000 rows + range), it can destroy your computer by simply calling the object.

You can also choose multiple grouping variables

DATA %>% group_by(institutionCode, basisOfRecord) #each group is a specific combination of institution and record type

## # A tibble: 44,767 x 16
## # Groups:   institutionCode, basisOfRecord [64]
##    decimalLongitude decimalLatitude species   issues  basisOfRecord  order
##               <dbl>           <dbl> <fct>     <fct>   <fct>          <fct>
##  1            -99.8            31.9 Lynx ruf ""      PRESERVED_SPE Carn
##  2            -97.8            32.2 Canis lu ""      PRESERVED_SPE Carn
##  3            -97.8            32.2 Canis lu ""      PRESERVED_SPE Carn
##  4            -97.5            26.5 Canis la ""      PRESERVED_SPE Carn
##  5            -96.2            30.9 Odocoile ""      PRESERVED_SPE Arti
##  6           -107.             31.9 Bassaris gass84 PRESERVED_SPE Carn
##  7            -96.3            30.6 Baiomys  ""      PRESERVED_SPE Rode
##  8            -97.6            33.4 Peromysc gass84  PRESERVED_SPE Rode
##  9            -97.6            33.4 Peromysc gass84  PRESERVED_SPE Rode
## 10            -97.6            33.4 Peromysc gass84  PRESERVED_SPE Rode
## # ... with 44,757 more rows, and 10 more variables: family <fct>,
## #   coordinateUncertaintyInMeters <dbl>, year <int>, datasetName <fct>,
## #   catalogNumber <fct>, institutionCode <fct>, county <fct>,
## #   preparations <fct>, locality <fct>, sex <fct>

ORD %>% filter(year > median(year, na.rm = T)) # slightly different result than before

## # A tibble: 20,788 x 16
## # Groups:   order [13]
##    decimalLongitude decimalLatitude species   issues  basisOfRecord  order
##               <dbl>           <dbl> <fct>     <fct>   <fct>          <fct>
##  1            -99.8            31.9 Lynx ruf ""      PRESERVED_SPE Carn
##  2            -97.8            32.2 Canis lu ""      PRESERVED_SPE Carn
##  3            -97.8            32.2 Canis lu ""      PRESERVED_SPE Carn
##  4            -97.5            26.5 Canis la ""      PRESERVED_SPE Carn
##  5            -96.2            30.9 Odocoile ""      PRESERVED_SPE Arti
##  6           -107.             31.9 Bassaris gass84 PRESERVED_SPE Carn
##  7            -96.3            30.6 Baiomys  ""      PRESERVED_SPE Rode
##  8            -97.6            33.4 Peromysc gass84  PRESERVED_SPE Rode
##  9            -97.6            33.4 Peromysc gass84  PRESERVED_SPE Rode
## 10            -97.6            33.4 Peromysc gass84  PRESERVED_SPE Rode
## # ... with 20,778 more rows, and 10 more variables: family <fct>,
## #   coordinateUncertaintyInMeters <dbl>, year <int>, datasetName <fct>,
## #   catalogNumber <fct>, institutionCode <fct>, county <fct>,
## #   preparations <fct>, locality <fct>, sex <fct>

#sapply(levels(DATA$order), function(x) DATA %>% filter(order == x) %$% year %>% median(na.rm = T)) #this also means that we have fossil dermopterans in Texas?!

For something perhaps a bit more useful, if you wanted to get rid of duplicated locality records within an order, how do you do that?

#DATA %>% select(1, 2) %>% duplicated() %>% `!` %>% sum
#DATA %>% distinct(decimalLongitude, decimalLatitude) %>% dim
ORD %>% distinct(decimalLongitude, decimalLatitude, .keep_all = T) %>% ungroup

## # A tibble: 10,282 x 16
##    decimalLongitude decimalLatitude species   issues  basisOfRecord  order
##               <dbl>           <dbl> <fct>     <fct>   <fct>          <fct>
##  1            -99.8            31.9 Lynx ruf ""      PRESERVED_SPE Carn
##  2            -97.8            32.2 Canis lu ""      PRESERVED_SPE Carn
##  3            -97.5            26.5 Canis la ""      PRESERVED_SPE Carn
##  4            -96.2            30.9 Odocoile ""      PRESERVED_SPE Arti
##  5           -107.             31.9 Bassaris gass84 PRESERVED_SPE Carn
##  6            -96.3            30.6 Baiomys  ""      PRESERVED_SPE Rode
##  7            -97.6            33.4 Peromysc gass84  PRESERVED_SPE Rode
##  8            -97.6            33.4 Peromysc gass84  PRESERVED_SPE Rode
##  9            -97.6            33.4 Peromysc gass84  PRESERVED_SPE Rode
## 10            -97.6            33.4 Peromysc gass84  PRESERVED_SPE Rode
## # ... with 10,272 more rows, and 10 more variables: family <fct>,
## #   coordinateUncertaintyInMeters <dbl>, year <int>, datasetName <fct>,
## #   catalogNumber <fct>, institutionCode <fct>, county <fct>,
## #   preparations <fct>, locality <fct>, sex <fct>
…
DATA %>% group_by(institutionCode) %>% summarize(nspec = n_distinct(species), nfam = n_distinct(family), norder = n_distinct(order))

## # A tibble: 60 x 4
##    institutionCode                                      nspec  nfam norder
##    <fct>                                                <int> <int>  <int>
##  1 AMNH                                                     6     5      4
##  2 ASNHC                                                  125    27      9
##  3 ASNHC-ASU                                                3     1      1
##  4 BM-UW                                                    1     1      1
##  5 BMNH-U of M                                              1     1      1
##  6 Borror Laboratory of Bioacoustics, Ohio State Unive     3     2      2
##  7 CAS                                                     25    14      6
##  8 CHAS                                                    13     8      4
##  9 CLO                                                      7     6      5
## 10 CUMV                                                    19     8      4
## # ... with 50 more rows
…
For a reshape2::dcast function (the d standing for data.frame, obviously, because why stop at putting an r in front of all your package and function names), you must specify a formula of x ~ y where the y is the variable that is broken up into columns.

gather and spread

Now that you have an idea of what wide/long data are and the reshape2 package (it is often shamefully joked that everyone still uses reshape2 because melt and cast make more sense), lets see how tidyr approaches these.

ORD %>% gather(key = "var", value = "val", -order)

## # A tibble: 34 x 3
##    order           var     val
##    <fct>           <chr> <int>
##  1 Artiodactyla    nspec   126
##  2 Carnivora       nspec   110
##  3 Cetacea         nspec    23
##  4 Chiroptera      nspec    35
##  5 Cingulata       nspec     5
##  6 Dermoptera      nspec     1
##  7 Didelphimorphia nspec     8
##  8 Diprotodontia   nspec     1
##  9 Erinaceomorpha  nspec     2
## 10 Lagomorpha      nspec    26
## # ... with 24 more rows

Its a little bit more roundabout to get to the same result using tidyr. The same basic idea applies by giving a key variable and a value variable, but it is harder for them to talk to each other and still keep the order column.

ORD %>% gather(order)

## # A tibble: 34 x 2
##    order value
##    <chr> <int>
##  1 nspec   126
##  2 nspec   110
##  3 nspec    23
##  4 nspec    35
##  5 nspec     5
##  6 nspec     1
##  7 nspec     8
##  8 nspec     1
##  9 nspec     2
## 10 nspec    26
## # ... with 24 more rows
…
